{
   "success":true,
   "result":{
      "config":{
         "element.disabled.transparency":10,
         "suffix.density":"kg m<sup>-3</sup>",
         "suffix.meltingpoint.celcius":"ºC",
         "suffix.meltingpoint":"K",
         "suffix.atomic.radius":"10<sup>-12</sup>m",
         "suffix.atomic.mass":"u",
         "suffix.heat":"J kg<sup>-1</sup>K<sup>-1</sup>",
         "suffix.thermalconductivity":"W m<sup>-1</sup>K<sup>-1</sup>",
         "suffix.electronegativity.pauling":"(Pauling)",
         "element.states":[
            0,
            1,
            2,
            3
         ],
         "element.groups":[
            {
               "id":1,
               "color":"#FD8B25"
            },
            {
               "id":2,
               "color":"#FC2A1C"
            },
            {
               "id":3,
               "color":"#832BA5"
            },
            {
               "id":4,
               "color":"#2768AB"
            },
            {
               "id":5,
               "color":"#2D398A"
            },
            {
               "id":6,
               "color":"#7E1E5A"
            },
            {
               "id":7,
               "color":"#F6B32A"
            },
            {
               "id":8,
               "color":"#D166E7"
            },
            {
               "id":9,
               "color":"#1EB1FC"
            },
            {
               "id":10,
               "color":"#18A81B"
            }
         ],
         "element.data":[
            {
               "id":1,
               "symbol":"H",
               "block":"s",
               "roomtemperature":1,
               "density":"0,084",
               "meltingpoint.celcius":"-259",
               "meltingpoint":"14,01",
               "boilingpoint.celcius":"-252,7",
               "boilingpoint":"20,28",
               "isotopes":"1H, 2H, 3H",
               "elektronconfiguration":"1s<sup>1</sup>",
               "elektronegativity":"2,1",
               "atomic.radius":"30",
               "atomic.mass":"1,0079",
               "heat":"14300",
               "thermalconductivity":"0,174",
               "periodicgroup":1,
               "video":"6rdmpx39PRk"
            },
            {
               "id":2,
               "symbol":"He",
               "block":"s",
               "roomtemperature":1,
               "density":"0,17",
               "meltingpoint.celcius":"-272",
               "meltingpoint":"2",
               "boilingpoint.celcius":"-268,8",
               "boilingpoint":"4,2",
               "isotopes":"3He, 4He",
               "elektronconfiguration":"1s<sup>2</sup>",
               "elektronegativity":"-",
               "atomic.radius":"-",
               "atomic.mass":"4,0026",
               "heat":"5100",
               "thermalconductivity":"0,144",
               "periodicgroup":6,
               "video":"a8FJEiI5e6Q"
            },
            {
               "id":3,
               "symbol":"Li",
               "block":"s",
               "roomtemperature":3,
               "density":"530",
               "meltingpoint.celcius":"181",
               "meltingpoint":"453,74",
               "boilingpoint.celcius":"1342",
               "boilingpoint":"1615",
               "isotopes":"6Li, 7Li",
               "elektronconfiguration":"[He] 2s<sup>1</sup>",
               "elektronegativity":"1,0",
               "atomic.radius":"152",
               "atomic.mass":"6,941",
               "heat":"-",
               "thermalconductivity":"-",
               "periodicgroup":2,
               "video":"wY0afMI4Jgc"
            },
            {
               "id":4,
               "symbol":"Be",
               "block":"s",
               "roomtemperature":3,
               "density":"1850",
               "meltingpoint.celcius":"1287",
               "meltingpoint":"1560",
               "boilingpoint.celcius":"2471",
               "boilingpoint":"2744",
               "isotopes":"9Be",
               "elektronconfiguration":"[He] 2s<sup>2</sup>",
               "elektronegativity":"1,5",
               "atomic.radius":"112",
               "atomic.mass":"9,0122",
               "heat":"1800",
               "thermalconductivity":"170",
               "periodicgroup":7,
               "video":"qy8JyQShZRA"
            },
            {
               "id":5,
               "symbol":"B",
               "block":"p",
               "roomtemperature":3,
               "density":"2400",
               "meltingpoint.celcius":"2075",
               "meltingpoint":"2348",
               "boilingpoint.celcius":"4000",
               "boilingpoint":"4273",
               "isotopes":"10B, 11B",
               "elektronconfiguration":"[He] 2s<sup>2</sup> 2p<sup>1</sup>",
               "elektronegativity":"2,0",
               "atomic.radius":"88",
               "atomic.mass":"10,811",
               "heat":"-",
               "thermalconductivity":"-",
               "periodicgroup":3,
               "video":"JzqdHkpXuy4"
            },
            {
               "id":6,
               "symbol":"C",
               "block":"p",
               "roomtemperature":3,
               "density":"2100",
               "meltingpoint.celcius":"3550",
               "meltingpoint":"3823",
               "boilingpoint.celcius":"3825",
               "boilingpoint":"4098",
               "isotopes":"12C, 13C",
               "elektronconfiguration":"[He] 2s<sup>2</sup> 2p<sup>2</sup>",
               "elektronegativity":"2,5",
               "atomic.radius":"77",
               "atomic.mass":"12,011",
               "heat":"850",
               "thermalconductivity":"160",
               "periodicgroup":1,
               "video":"QuW4_bRHbUk"
            },
            {
               "id":7,
               "symbol":"N",
               "block":"p",
               "roomtemperature":1,
               "density":"1,17",
               "meltingpoint.celcius":"-210",
               "meltingpoint":"63,3",
               "boilingpoint.celcius":"-196",
               "boilingpoint":"77,4",
               "isotopes":"14N, 15N",
               "elektronconfiguration":"[He] 2s<sup>2</sup> 2p<sup>3</sup>",
               "elektronegativity":"3,1",
               "atomic.radius":"70",
               "atomic.mass":"14,0067",
               "heat":"1040",
               "thermalconductivity":"0,024",
               "periodicgroup":1,
               "video":"zmvJ54kRpjg"
            },
            {
               "id":8,
               "symbol":"O",
               "block":"p",
               "roomtemperature":1,
               "density":"1,33",
               "meltingpoint.celcius":"-219",
               "meltingpoint":"54,8",
               "boilingpoint.celcius":"-183",
               "boilingpoint":"90,2",
               "isotopes":"16O, 17O, 18O",
               "elektronconfiguration":"[He] 2s<sup>2</sup> 2p<sup>4</sup>",
               "elektronegativity":"3,5",
               "atomic.radius":"66",
               "atomic.mass":"15,9994",
               "heat":"920",
               "thermalconductivity":"0,025",
               "periodicgroup":1,
               "video":"WuG5WTId-IY"
            },
            {
               "id":9,
               "symbol":"F",
               "block":"p",
               "roomtemperature":1,
               "density":"1,58",
               "meltingpoint.celcius":"-219",
               "meltingpoint":"54",
               "boilingpoint.celcius":"-188",
               "boilingpoint":"85",
               "isotopes":"19F",
               "elektronconfiguration":"[He] 2s<sup>2</sup> 2p<sup>5</sup>",
               "elektronegativity":"4,1",
               "atomic.radius":"64",
               "atomic.mass":"18,9984",
               "heat":"820",
               "thermalconductivity":"0,0176",
               "periodicgroup":8,
               "video":"vtWp45Eewtw"
            },
            {
               "id":10,
               "symbol":"Ne",
               "block":"p",
               "roomtemperature":1,
               "density":"0,84",
               "meltingpoint.celcius":"-248",
               "meltingpoint":"24,53",
               "boilingpoint.celcius":"-246",
               "boilingpoint":"27,1",
               "isotopes":"20Ne, 21Ne, 22Ne",
               "elektronconfiguration":"[He] 2s<sup>2</sup> 2p<sup>6</sup>",
               "elektronegativity":"-",
               "atomic.radius":"-",
               "atomic.mass":"20,179",
               "heat":"1030",
               "thermalconductivity":"0,046",
               "periodicgroup":6,
               "video":"wzv0pb7mzaw"
            },
            {
               "id":11,
               "symbol":"Na",
               "block":"s",
               "roomtemperature":3,
               "density":"970",
               "meltingpoint.celcius":"98",
               "meltingpoint":"371,01",
               "boilingpoint.celcius":"883",
               "boilingpoint":"1156",
               "isotopes":"23Na",
               "elektronconfiguration":"[Ne] 3s<sup>1</sup>",
               "elektronegativity":"1,0",
               "atomic.radius":"186",
               "atomic.mass":"22,9898",
               "heat":"1230",
               "thermalconductivity":"142",
               "periodicgroup":2,
               "video":"7IT2I3LtlNE"
            },
            {
               "id":12,
               "symbol":"Mg",
               "block":"s",
               "roomtemperature":3,
               "density":"1740",
               "meltingpoint.celcius":"650",
               "meltingpoint":"923",
               "boilingpoint.celcius":"1090",
               "boilingpoint":"1363",
               "isotopes":"24Mg, 25Mg, 26Mg",
               "elektronconfiguration":"[Ne] 3s<sup>2</sup>",
               "elektronegativity":"1,2",
               "atomic.radius":"160",
               "atomic.mass":"24,305",
               "heat":"1026",
               "thermalconductivity":"156",
               "periodicgroup":7,
               "video":"FKkWdizutxI"
            },
            {
               "id":13,
               "symbol":"Al",
               "block":"p",
               "roomtemperature":3,
               "density":"2700",
               "meltingpoint.celcius":"660",
               "meltingpoint":"933",
               "boilingpoint.celcius":"2519",
               "boilingpoint":"2792",
               "isotopes":"27Al",
               "elektronconfiguration":"[Ne] 3s<sup>2</sup> 3p<sup>1</sup>",
               "elektronegativity":"1,5",
               "atomic.radius":"143",
               "atomic.mass":"26,9815",
               "heat":"880",
               "thermalconductivity":"237",
               "periodicgroup":4,
               "video":"p2cicHXMs1w"
            },
            {
               "id":14,
               "symbol":"Si",
               "block":"p",
               "roomtemperature":3,
               "density":"2400",
               "meltingpoint.celcius":"1414",
               "meltingpoint":"1687",
               "boilingpoint.celcius":"3265",
               "boilingpoint":"3538",
               "isotopes":"28Si, 29Si, 30Si",
               "elektronconfiguration":"[Ne] 3s<sup>2</sup> 3p<sup>2</sup>",
               "elektronegativity":"1,7",
               "atomic.radius":"117",
               "atomic.mass":"28,086",
               "heat":"760",
               "thermalconductivity":"148",
               "periodicgroup":3,
               "video":"a2aWO5cL410"
            },
            {
               "id":15,
               "symbol":"P",
               "block":"p",
               "roomtemperature":3,
               "density":"1820",
               "meltingpoint.celcius":"44",
               "meltingpoint":"317",
               "boilingpoint.celcius":"281",
               "boilingpoint":"554",
               "isotopes":"31P",
               "elektronconfiguration":"[Ne] 3s<sup>2</sup> 3p<sup>3</sup>",
               "elektronegativity":"2,1",
               "atomic.radius":"110",
               "atomic.mass":"30,9738",
               "heat":"795",
               "thermalconductivity":"0,235",
               "periodicgroup":1,
               "video":"LSYLUat03A4"
            },
            {
               "id":16,
               "symbol":"S",
               "block":"p",
               "roomtemperature":3,
               "density":"1960",
               "meltingpoint.celcius":"115",
               "meltingpoint":"388",
               "boilingpoint.celcius":"445",
               "boilingpoint":"718",
               "isotopes":"32S, 33S, 34S, 36S",
               "elektronconfiguration":"[Ne] 3s<sup>2</sup> 3p<sup>4</sup>",
               "elektronegativity":"2,4",
               "atomic.radius":"104",
               "atomic.mass":"32,064",
               "heat":"730",
               "thermalconductivity":"0,269",
               "periodicgroup":1,
               "video":"mGMR72X8V-U"
            },
            {
               "id":17,
               "symbol":"Cl",
               "block":"p",
               "roomtemperature":1,
               "density":"2,99",
               "meltingpoint.celcius":"-101",
               "meltingpoint":"172",
               "boilingpoint.celcius":"-34",
               "boilingpoint":"239",
               "isotopes":"35Cl, 37Cl",
               "elektronconfiguration":"[Ne] 3s<sup>2</sup> 3p<sup>5</sup>",
               "elektronegativity":"2,8",
               "atomic.radius":"99",
               "atomic.mass":"35,453",
               "heat":"490",
               "thermalconductivity":"0,0076",
               "periodicgroup":8,
               "video":"BXCfBl4rmh0"
            },
            {
               "id":18,
               "symbol":"Ar",
               "block":"p",
               "roomtemperature":1,
               "density":"1,66",
               "meltingpoint.celcius":"-189",
               "meltingpoint":"83,75",
               "boilingpoint.celcius":"-186",
               "boilingpoint":"87,3",
               "isotopes":"36Ar, 38Ar, 40Ar",
               "elektronconfiguration":"[Ne] 3s<sup>2</sup> 3p<sup>6</sup>",
               "elektronegativity":"2,0",
               "atomic.radius":"-",
               "atomic.mass":"39,948",
               "heat":"520",
               "thermalconductivity":"0,016",
               "periodicgroup":6,
               "video":"nrHVOFG2V-c"
            },
            {
               "id":19,
               "symbol":"K",
               "block":"s",
               "roomtemperature":3,
               "density":"860",
               "meltingpoint.celcius":"63",
               "meltingpoint":"336,5",
               "boilingpoint.celcius":"759",
               "boilingpoint":"1032",
               "isotopes":"39K, 40K, 41K",
               "elektronconfiguration":"[Ar] 4s<sup>1</sup>",
               "elektronegativity":"0,9",
               "atomic.radius":"231",
               "atomic.mass":"39,102",
               "heat":"754",
               "thermalconductivity":"130",
               "periodicgroup":2,
               "video":"pPdevJTGAYY"
            },
            {
               "id":20,
               "symbol":"Ca",
               "block":"s",
               "roomtemperature":3,
               "density":"1550",
               "meltingpoint.celcius":"842",
               "meltingpoint":"1115",
               "boilingpoint.celcius":"1484",
               "boilingpoint":"1757",
               "isotopes":"40Ca, 42Ca, 46Ca, 48Ca",
               "elektronconfiguration":"[Ar] 4s<sup>2</sup>",
               "elektronegativity":"1,0",
               "atomic.radius":"197",
               "atomic.mass":"40,078",
               "heat":"650",
               "thermalconductivity":"96",
               "periodicgroup":7,
               "video":"V9fuY8_ffFg"
            },
            {
               "id":21,
               "symbol":"Sc",
               "block":"d",
               "roomtemperature":3,
               "density":"2990",
               "meltingpoint.celcius":"1541",
               "meltingpoint":"1814",
               "boilingpoint.celcius":"2830",
               "boilingpoint":"3103",
               "isotopes":"45Sc",
               "elektronconfiguration":"[Ar] 4s<sup>2</sup> 3d<sup>1</sup>",
               "elektronegativity":"1,2",
               "atomic.radius":"160",
               "atomic.mass":"44,956",
               "heat":"-",
               "thermalconductivity":"-",
               "periodicgroup":9,
               "video":"KkKv5ilmRjY"
            },
            {
               "id":22,
               "symbol":"Ti",
               "block":"d",
               "roomtemperature":3,
               "density":"4540",
               "meltingpoint.celcius":"1668",
               "meltingpoint":"1941",
               "boilingpoint.celcius":"3287",
               "boilingpoint":"3560",
               "isotopes":"46Ti, 47Ti, 48Ti, 49Ti, 50Ti",
               "elektronconfiguration":"[Ar] 4s<sup>2</sup> 3d<sup>2</sup>",
               "elektronegativity":"1,3",
               "atomic.radius":"146",
               "atomic.mass":"47,867",
               "heat":"-",
               "thermalconductivity":"-",
               "periodicgroup":9,
               "video":"MpFTQYynrc4"
            },
            {
               "id":23,
               "symbol":"V",
               "block":"d",
               "roomtemperature":3,
               "density":"6100",
               "meltingpoint.celcius":"1910",
               "meltingpoint":"2183",
               "boilingpoint.celcius":"3407",
               "boilingpoint":"3680",
               "isotopes":"50V, 51V",
               "elektronconfiguration":"[Ar] 4s<sup>2</sup> 3d<sup>3</sup>",
               "elektronegativity":"1,5",
               "atomic.radius":"131",
               "atomic.mass":"50,942",
               "heat":"-",
               "thermalconductivity":"-",
               "periodicgroup":9,
               "video":"XRjb_IKDiz8"
            },
            {
               "id":24,
               "symbol":"Cr",
               "block":"d",
               "roomtemperature":3,
               "density":"7190",
               "meltingpoint.celcius":"1857",
               "meltingpoint":"2130",
               "boilingpoint.celcius":"2671",
               "boilingpoint":"2944",
               "isotopes":"50Cr, 52Cr, 53Cr, 54Cr",
               "elektronconfiguration":"[Ar] 4s<sup>2</sup> 3d<sup>4</sup>",
               "elektronegativity":"1,6",
               "atomic.radius":"125",
               "atomic.mass":"51,996",
               "heat":"450",
               "thermalconductivity":"43",
               "periodicgroup":9,
               "video":"lzRb4zmGvNU"
            },
            {
               "id":25,
               "symbol":"Mn",
               "block":"d",
               "roomtemperature":3,
               "density":"7300",
               "meltingpoint.celcius":"1246",
               "meltingpoint":"1519",
               "boilingpoint.celcius":"2061",
               "boilingpoint":"2334",
               "isotopes":"55Mn",
               "elektronconfiguration":"[Ar] 4s<sup>2</sup> 3d<sup>5</sup>",
               "elektronegativity":"1,6",
               "atomic.radius":"129",
               "atomic.mass":"54,938",
               "heat":"-",
               "thermalconductivity":"-",
               "periodicgroup":9,
               "video":"5xqsPZ7WsHw"
            },
            {
               "id":26,
               "symbol":"Fe",
               "block":"d",
               "roomtemperature":3,
               "density":"7870",
               "meltingpoint.celcius":"1538",
               "meltingpoint":"1811",
               "boilingpoint.celcius":"2861",
               "boilingpoint":"3134",
               "isotopes":"54Fe, 56Fe, 57Fe, 58Fe",
               "elektronconfiguration":"[Ar] 4s<sup>2</sup> 3d<sup>6</sup>",
               "elektronegativity":"1,6",
               "atomic.radius":"126",
               "atomic.mass":"55,847",
               "heat":"460",
               "thermalconductivity":"80,4",
               "periodicgroup":9,
               "video":"euQUgp5AY-Y"
            },
            {
               "id":27,
               "symbol":"Co",
               "block":"d",
               "roomtemperature":3,
               "density":"8900",
               "meltingpoint.celcius":"1495",
               "meltingpoint":"1768",
               "boilingpoint.celcius":"2927",
               "boilingpoint":"3200",
               "isotopes":"59Co",
               "elektronconfiguration":"[Ar] 4s<sup>2</sup> 3d<sup>7</sup>",
               "elektronegativity":"1,7",
               "atomic.radius":"125",
               "atomic.mass":"58,932",
               "heat":"420",
               "thermalconductivity":"70",
               "periodicgroup":9,
               "video":"V6ljxByu9ng"
            },
            {
               "id":28,
               "symbol":"Ni",
               "block":"d",
               "roomtemperature":3,
               "density":"8900",
               "meltingpoint.celcius":"1455",
               "meltingpoint":"1728",
               "boilingpoint.celcius":"2913",
               "boilingpoint":"3186",
               "isotopes":"58Ni, 62Ni, 64Ni",
               "elektronconfiguration":"[Ar] 4s<sup>2</sup> 3d<sup>8</sup>",
               "elektronegativity":"1,8",
               "atomic.radius":"124",
               "atomic.mass":"58,71",
               "heat":"460",
               "thermalconductivity":"90,9",
               "periodicgroup":9,
               "video":"t4kRHoj0W1Y"
            },
            {
               "id":29,
               "symbol":"Cu",
               "block":"d",
               "roomtemperature":3,
               "density":"8960",
               "meltingpoint.celcius":"1084",
               "meltingpoint":"1357",
               "boilingpoint.celcius":"2562",
               "boilingpoint":"2843",
               "isotopes":"63Cu, 65Cu",
               "elektronconfiguration":"[Ar] 4s<sup>2</sup> 3d<sup>9</sup>",
               "elektronegativity":"1,8",
               "atomic.radius":"128",
               "atomic.mass":"63,546",
               "heat":"387",
               "thermalconductivity":"390",
               "periodicgroup":9,
               "video":"kop1sWzTK-I"
            },
            {
               "id":30,
               "symbol":"Zn",
               "block":"d",
               "roomtemperature":3,
               "density":"7200",
               "meltingpoint.celcius":"420",
               "meltingpoint":"693",
               "boilingpoint.celcius":"907",
               "boilingpoint":"1180",
               "isotopes":"64Zn, 66Zn, 67Zn, 68Zn, 70Zn",
               "elektronconfiguration":"[Ar] 4s<sup>2</sup> 3d<sup>10</sup>",
               "elektronegativity":"1,7",
               "atomic.radius":"133",
               "atomic.mass":"65,38",
               "heat":"386",
               "thermalconductivity":"116",
               "periodicgroup":9,
               "video":"99wPiMb-k0o"
            },
            {
               "id":31,
               "symbol":"Ga",
               "block":"p",
               "roomtemperature":3,
               "density":"5900",
               "meltingpoint.celcius":"30",
               "meltingpoint":"303",
               "boilingpoint.celcius":"2204",
               "boilingpoint":"2477",
               "isotopes":"69Ga",
               "elektronconfiguration":"[Ar] 4s<sup>2</sup> 3d<sup>10</sup> 4p<sup>1</sup>",
               "elektronegativity":"1,8",
               "atomic.radius":"141",
               "atomic.mass":"69,723",
               "heat":"-",
               "thermalconductivity":"-",
               "periodicgroup":4,
               "video":"N6ccRvKKwZQ"
            },
            {
               "id":32,
               "symbol":"Ge",
               "block":"p",
               "roomtemperature":3,
               "density":"5300",
               "meltingpoint.celcius":"938",
               "meltingpoint":"1211",
               "boilingpoint.celcius":"2833",
               "boilingpoint":"3106",
               "isotopes":"70Ge, 72Ge, 73Ge, 74Ge, 76Ge",
               "elektronconfiguration":"[Ar] 4s<sup>2</sup> 3d<sup>10</sup> 4p<sup>2</sup>",
               "elektronegativity":"2,0",
               "atomic.radius":"122",
               "atomic.mass":"72,59",
               "heat":"310",
               "thermalconductivity":"63",
               "periodicgroup":3,
               "video":"osrKWVknkgs"
            },
            {
               "id":33,
               "symbol":"As",
               "block":"p",
               "roomtemperature":3,
               "density":"5700",
               "meltingpoint.celcius":"817",
               "meltingpoint":"1090",
               "boilingpoint.celcius":"614",
               "boilingpoint":"887",
               "isotopes":"75As",
               "elektronconfiguration":"[Ar] 4s<sup>2</sup> 3d<sup>10</sup> 4p<sup>3</sup>",
               "elektronegativity":"2,2",
               "atomic.radius":"121",
               "atomic.mass":"74,9216",
               "heat":"-",
               "thermalconductivity":"-",
               "periodicgroup":3,
               "video":"a2AbKwAvyos"
            },
            {
               "id":34,
               "symbol":"Se",
               "block":"p",
               "roomtemperature":3,
               "density":"4790",
               "meltingpoint.celcius":"221",
               "meltingpoint":"494",
               "boilingpoint.celcius":"685",
               "boilingpoint":"958",
               "isotopes":"74Se, 76Se, 77Se, 78Se, 80Se",
               "elektronconfiguration":"[Ar] 4s<sup>2</sup> 3d<sup>10</sup> 4p<sup>4</sup>",
               "elektronegativity":"2,5",
               "atomic.radius":"117",
               "atomic.mass":"78,96",
               "heat":"350",
               "thermalconductivity":"2,04",
               "periodicgroup":1,
               "video":"IHrUtKjcAFE"
            },
            {
               "id":35,
               "symbol":"Br",
               "block":"p",
               "roomtemperature":2,
               "density":"3120",
               "meltingpoint.celcius":"-7",
               "meltingpoint":"266",
               "boilingpoint.celcius":"59",
               "boilingpoint":"332",
               "isotopes":"79Br, 81Br",
               "elektronconfiguration":"[Ar] 4s<sup>2</sup> 3d<sup>10</sup> 4p<sup>5</sup>",
               "elektronegativity":"2,7",
               "atomic.radius":"114",
               "atomic.mass":"79,904",
               "heat":"-",
               "thermalconductivity":"-",
               "periodicgroup":8,
               "video":"Slt3_5upuSs"
            },
            {
               "id":36,
               "symbol":"Kr",
               "block":"p",
               "roomtemperature":1,
               "density":"3,49",
               "meltingpoint.celcius":"-157",
               "meltingpoint":"116",
               "boilingpoint.celcius":"-153",
               "boilingpoint":"120",
               "isotopes":"78Kr, 80Kr, 82Kr, 83Kr, 84Kr, 86Kr",
               "elektronconfiguration":"[Ar] 4s<sup>2</sup> 3d<sup>10</sup> 4p<sup>6</sup>",
               "elektronegativity":"-",
               "atomic.radius":"-",
               "atomic.mass":"83,8",
               "heat":"250",
               "thermalconductivity":"0,0087",
               "periodicgroup":6,
               "video":"il4OOY7Zseg"
            },
            {
               "id":37,
               "symbol":"Rb",
               "block":"s",
               "roomtemperature":3,
               "density":"1530",
               "meltingpoint.celcius":"39",
               "meltingpoint":"312",
               "boilingpoint.celcius":"688",
               "boilingpoint":"961",
               "isotopes":"85Rb, 87Rb",
               "elektronconfiguration":"[Kr] 5s<sup>1</sup>",
               "elektronegativity":"0,9",
               "atomic.radius":"244",
               "atomic.mass":"85,47",
               "heat":"-",
               "thermalconductivity":"-",
               "periodicgroup":2,
               "video":"0XLGopBovoI"
            },
            {
               "id":38,
               "symbol":"Sr",
               "block":"s",
               "roomtemperature":3,
               "density":"2540",
               "meltingpoint.celcius":"777",
               "meltingpoint":"1050",
               "boilingpoint.celcius":"1382",
               "boilingpoint":"1655",
               "isotopes":"84Sr, 86Sr, 87Sr, 88Sr",
               "elektronconfiguration":"[Kr] 5s<sup>2</sup>",
               "elektronegativity":"1,0",
               "atomic.radius":"215",
               "atomic.mass":"87,62",
               "heat":"-",
               "thermalconductivity":"-",
               "periodicgroup":7,
               "video":"d5ztPGrsgNQ"
            },
            {
               "id":39,
               "symbol":"Y",
               "block":"d",
               "roomtemperature":3,
               "density":"4500",
               "meltingpoint.celcius":"1526",
               "meltingpoint":"1799",
               "boilingpoint.celcius":"3336",
               "boilingpoint":"3609",
               "isotopes":"89Y",
               "elektronconfiguration":"[Kr] 5s<sup>2</sup> 4d<sup>1</sup>",
               "elektronegativity":"1,1",
               "atomic.radius":"180",
               "atomic.mass":"88,905",
               "heat":"-",
               "thermalconductivity":"-",
               "periodicgroup":9,
               "video":"tTXjnQlAHAQ"
            },
            {
               "id":40,
               "symbol":"Zr",
               "block":"d",
               "roomtemperature":3,
               "density":"6510",
               "meltingpoint.celcius":"1855",
               "meltingpoint":"2128",
               "boilingpoint.celcius":"4409",
               "boilingpoint":"4682",
               "isotopes":"90Zr, 91Zr, 92Zr, 94Zr, 96Zr",
               "elektronconfiguration":"[Kr] 5s<sup>2</sup> 4d<sup>2</sup>",
               "elektronegativity":"1,2",
               "atomic.radius":"157",
               "atomic.mass":"91,22",
               "heat":"-",
               "thermalconductivity":"-",
               "periodicgroup":9,
               "video":"gNJE2MPktvg"
            },
            {
               "id":41,
               "symbol":"Nb",
               "block":"d",
               "roomtemperature":3,
               "density":"8570",
               "meltingpoint.celcius":"2477",
               "meltingpoint":"2750",
               "boilingpoint.celcius":"4744",
               "boilingpoint":"5017",
               "isotopes":"93Nb",
               "elektronconfiguration":"[Kr] 5s<sup>2</sup> 4d<sup>3</sup>",
               "elektronegativity":"1,2",
               "atomic.radius":"141",
               "atomic.mass":"92,906",
               "heat":"-",
               "thermalconductivity":"-",
               "periodicgroup":9,
               "video":"Mr2hnIheDxQ"
            },
            {
               "id":42,
               "symbol":"Mo",
               "block":"d",
               "roomtemperature":3,
               "density":"10200",
               "meltingpoint.celcius":"2623",
               "meltingpoint":"2896",
               "boilingpoint.celcius":"4639",
               "boilingpoint":"4912",
               "isotopes":"92Mo, 94Mo, 95Mo, 96Mo, 97Mo, 98Mo",
               "elektronconfiguration":"[Kr] 5s<sup>2</sup> 4d<sup>4</sup>",
               "elektronegativity":"1,3",
               "atomic.radius":"136",
               "atomic.mass":"95,94",
               "heat":"260",
               "thermalconductivity":"138",
               "periodicgroup":9,
               "video":" ZRQ3vBGskds"
            },
            {
               "id":43,
               "symbol":"Tc",
               "block":"d",
               "roomtemperature":3,
               "density":"11500",
               "meltingpoint.celcius":"2157",
               "meltingpoint":"2430",
               "boilingpoint.celcius":"4265",
               "boilingpoint":"4538",
               "isotopes":"-",
               "elektronconfiguration":"[Kr] 5s<sup>2</sup> 4d<sup>5</sup>",
               "elektronegativity":"1,4",
               "atomic.radius":"135",
               "atomic.mass":"97",
               "heat":"-",
               "thermalconductivity":"-",
               "periodicgroup":9,
               "video":"0QBlrGva5YQ"
            },
            {
               "id":44,
               "symbol":"Ru",
               "block":"d",
               "roomtemperature":3,
               "density":"12400",
               "meltingpoint.celcius":"2334",
               "meltingpoint":"2607",
               "boilingpoint.celcius":"4150",
               "boilingpoint":"4423",
               "isotopes":"96Ru, 98Ru, 99Ru, 100Ru, 101Ru, 102Ru, 104Ru",
               "elektronconfiguration":"[Kr] 5s<sup>2</sup> 4d<sup>6</sup>",
               "elektronegativity":"1,4",
               "atomic.radius":"133",
               "atomic.mass":"101,07",
               "heat":"-",
               "thermalconductivity":"-",
               "periodicgroup":9,
               "video":"wl5ZYb0hDTc"
            },
            {
               "id":45,
               "symbol":"Rh",
               "block":"d",
               "roomtemperature":3,
               "density":"12400",
               "meltingpoint.celcius":"1964",
               "meltingpoint":"2237",
               "boilingpoint.celcius":"3695",
               "boilingpoint":"3968",
               "isotopes":"103Rh",
               "elektronconfiguration":"[Kr] 5s<sup>2</sup> 4d<sup>7</sup>",
               "elektronegativity":"1,5",
               "atomic.radius":"134",
               "atomic.mass":"102,905",
               "heat":"-",
               "thermalconductivity":"-",
               "periodicgroup":9,
               "video":"PPSO5798k2I"
            },
            {
               "id":46,
               "symbol":"Pd",
               "block":"d",
               "roomtemperature":3,
               "density":"12000",
               "meltingpoint.celcius":"1555",
               "meltingpoint":"1828",
               "boilingpoint.celcius":"2963",
               "boilingpoint":"3236",
               "isotopes":"102Pd, 104Pd, 105Pd, 106Pd, 108Pd, 110Pd",
               "elektronconfiguration":"[Kr] 5s<sup>2</sup> 4d<sup>8</sup",
               "elektronegativity":"1,4",
               "atomic.radius":"138",
               "atomic.mass":"106,4",
               "heat":"-",
               "thermalconductivity":"-",
               "periodicgroup":9,
               "video":"4ALTGeqmNFM"
            },
            {
               "id":47,
               "symbol":"Ag",
               "block":"d",
               "roomtemperature":3,
               "density":"10500",
               "meltingpoint.celcius":"962",
               "meltingpoint":"1235",
               "boilingpoint.celcius":"2162",
               "boilingpoint":"2435",
               "isotopes":"107Ag, 109Ag",
               "elektronconfiguration":"[Kr] 5s<sup>2</sup> 4d<sup>9</sup>",
               "elektronegativity":"1,4",
               "atomic.radius":"144",
               "atomic.mass":"107,87",
               "heat":"240",
               "thermalconductivity":"429",
               "periodicgroup":9,
               "video":"pPd5qAb4J50"
            },
            {
               "id":48,
               "symbol":"Cd",
               "block":"d",
               "roomtemperature":3,
               "density":"8650",
               "meltingpoint.celcius":"321",
               "meltingpoint":"594",
               "boilingpoint.celcius":"767",
               "boilingpoint":"1040",
               "isotopes":"106Cd, 108Cd, 110Cd, 111Cd, 112Cd, 114Cd",
               "elektronconfiguration":"[Kr] 5s<sup>2</sup> 4d<sup>10</sup>",
               "elektronegativity":"1,5",
               "atomic.radius":"149",
               "atomic.mass":"112,4",
               "heat":"-",
               "thermalconductivity":"-",
               "periodicgroup":9,
               "video":"boRius1DYdQ"
            },
            {
               "id":49,
               "symbol":"In",
               "block":"p",
               "roomtemperature":3,
               "density":"7310",
               "meltingpoint.celcius":"157",
               "meltingpoint":"430",
               "boilingpoint.celcius":"2072",
               "boilingpoint":"2345",
               "isotopes":"113In, 115In",
               "elektronconfiguration":"[Kr] 5s<sup>2</sup> 4d<sup>10</sup> 5p<sup>1</sup>",
               "elektronegativity":"1,5",
               "atomic.radius":"166",
               "atomic.mass":"114,82",
               "heat":"-",
               "thermalconductivity":"-",
               "periodicgroup":4,
               "video":"4opHafNmgCw"
            },
            {
               "id":50,
               "symbol":"Sn",
               "block":"p",
               "roomtemperature":3,
               "density":"7310",
               "meltingpoint.celcius":"232",
               "meltingpoint":"505",
               "boilingpoint.celcius":"2602",
               "boilingpoint":"2875",
               "isotopes":"112Sn, 114Sn, 115Sn, 116Sn, 117Sn, 118Sn, 119Sn, 120Sn, 122Sn, 124Sn",
               "elektronconfiguration":"[Kr] 5s<sup>2</sup> 4d<sup>10</sup> 5p<sup>2</sup>",
               "elektronegativity":"1,7",
               "atomic.radius":"162",
               "atomic.mass":"118,69",
               "heat":"220",
               "thermalconductivity":"64",
               "periodicgroup":4,
               "video":"qEwCPJOP0Mg"
            },
            {
               "id":51,
               "symbol":"Sb",
               "block":"p",
               "roomtemperature":3,
               "density":"6690",
               "meltingpoint.celcius":"631",
               "meltingpoint":"904",
               "boilingpoint.celcius":"1587",
               "boilingpoint":"1860",
               "isotopes":"121Sb, 123Sb",
               "elektronconfiguration":"[Kr] 5s<sup>2</sup> 4d<sup>10</sup> 5p<sup>3</sup>",
               "elektronegativity":"1,8",
               "atomic.radius":"141",
               "atomic.mass":"121,75",
               "heat":"-",
               "thermalconductivity":"-",
               "periodicgroup":3,
               "video":"kcc6qNT3BoU"
            },
            {
               "id":52,
               "symbol":"Te",
               "block":"p",
               "roomtemperature":3,
               "density":"6240",
               "meltingpoint.celcius":"450",
               "meltingpoint":"723",
               "boilingpoint.celcius":"988",
               "boilingpoint":"1261",
               "isotopes":"120Te, 122Te, 123Te, 124Te, 125Te, 126Te, 128Te, 130Te",
               "elektronconfiguration":"[Kr] 5s<sup>2</sup> 4d<sup>10</sup> 5p<sup>4</sup>",
               "elektronegativity":"2,0",
               "atomic.radius":"137",
               "atomic.mass":"127,6",
               "heat":"-",
               "thermalconductivity":"-",
               "periodicgroup":3,
               "video":"5ChFbVu4Mpk"
            },
            {
               "id":53,
               "symbol":"I",
               "block":"p",
               "roomtemperature":3,
               "density":"4930",
               "meltingpoint.celcius":"114",
               "meltingpoint":"387",
               "boilingpoint.celcius":"185",
               "boilingpoint":"458",
               "isotopes":"127I",
               "elektronconfiguration":"[Kr] 5s<sup>2</sup> 4d<sup>10</sup> 5p<sup>5</sup>",
               "elektronegativity":"2,2",
               "atomic.radius":"133",
               "atomic.mass":"126,9045",
               "heat":"-",
               "thermalconductivity":"-",
               "periodicgroup":8,
               "video":"JUBsJLRSM64"
            },
            {
               "id":54,
               "symbol":"Xe",
               "block":"p",
               "roomtemperature":1,
               "density":"5,49",
               "meltingpoint.celcius":"-112",
               "meltingpoint":"161",
               "boilingpoint.celcius":"-108",
               "boilingpoint":"165",
               "isotopes":"124, 126, 128 t/m 132, 134, 136Xe",
               "elektronconfiguration":"[Kr] 5s<sup>2</sup> 4d<sup>10</sup> 5p<sup>6</sup)",
               "elektronegativity":"-",
               "atomic.radius":"124",
               "atomic.mass":"131,3",
               "heat":"160",
               "thermalconductivity":"0,0052",
               "periodicgroup":6,
               "video":"Ejoct_6pQ74"
            },
            {
               "id":55,
               "symbol":"Cs",
               "block":"s",
               "roomtemperature":3,
               "density":"1870",
               "meltingpoint.celcius":"29",
               "meltingpoint":"302",
               "boilingpoint.celcius":"671",
               "boilingpoint":"944",
               "isotopes":"133Cs",
               "elektronconfiguration":"[Xe] 6s<sup>1</sup>",
               "elektronegativity":"0,9",
               "atomic.radius":"262",
               "atomic.mass":"132,905",
               "heat":"-",
               "thermalconductivity":"-",
               "periodicgroup":2,
               "video":"5aD6HwUE2c0"
            },
            {
               "id":56,
               "symbol":"Ba",
               "block":"s",
               "roomtemperature":3,
               "density":"3500",
               "meltingpoint.celcius":"727",
               "meltingpoint":"1000",
               "boilingpoint.celcius":"1897",
               "boilingpoint":"2170",
               "isotopes":"130Ba, 132Ba, 134Ba, 135Ba, 136Ba, 137Ba, 138Ba",
               "elektronconfiguration":"[Xe] 6s<sup>2</sup>",
               "elektronegativity":"1,0",
               "atomic.radius":"217",
               "atomic.mass":"137,34",
               "heat":"-",
               "thermalconductivity":"-",
               "periodicgroup":7,
               "video":"9srJdQU3NOo"
            },
            {
               "id":57,
               "symbol":"La",
               "block":"d",
               "roomtemperature":3,
               "density":"6150",
               "meltingpoint.celcius":"920",
               "meltingpoint":"1193",
               "boilingpoint.celcius":"3455",
               "boilingpoint":"3728",
               "isotopes":"139 La",
               "elektronconfiguration":"[Xe] 6s<sup>2</sup> 4f<sup>1</sup>",
               "elektronegativity":"1,1",
               "atomic.radius":"188",
               "atomic.mass":"138,91",
               "heat":"-",
               "thermalconductivity":"-",
               "periodicgroup":5,
               "video":"Q21clW0s0B8"
            },
            {
               "id":58,
               "symbol":"Ce",
               "block":"f",
               "roomtemperature":3,
               "density":"6710",
               "meltingpoint.celcius":"804",
               "meltingpoint":"1077",
               "boilingpoint.celcius":"3426",
               "boilingpoint":"3699",
               "isotopes":"140Ce, 142Ce",
               "elektronconfiguration":"[Xe] 6s<sup>2</sup> 4f<sup>2</sup>",
               "elektronegativity":"1,1",
               "atomic.radius":"183",
               "atomic.mass":"140,12",
               "heat":"-",
               "thermalconductivity":"-",
               "periodicgroup":5,
               "video":"frD3126ry8o"
            },
            {
               "id":59,
               "symbol":"Pr",
               "block":"f",
               "roomtemperature":3,
               "density":"6780",
               "meltingpoint.celcius":"935",
               "meltingpoint":"1208",
               "boilingpoint.celcius":"3512",
               "boilingpoint":"3785",
               "isotopes":"141Pr",
               "elektronconfiguration":"[Xe] 6s<sup>2</sup> 4f<sup>3</sup>",
               "elektronegativity":"1,1",
               "atomic.radius":"182",
               "atomic.mass":"140,907",
               "heat":"-",
               "thermalconductivity":"-",
               "periodicgroup":5,
               "video":"IL06CzXF3ns"
            },
            {
               "id":60,
               "symbol":"Nd",
               "block":"f",
               "roomtemperature":3,
               "density":"7000",
               "meltingpoint.celcius":"1020",
               "meltingpoint":"1293",
               "boilingpoint.celcius":"3027",
               "boilingpoint":"3300",
               "isotopes":"142Nd, 143Nd, 144Nd, 145Nd, 146Nd, 148Nd, 150Nd",
               "elektronconfiguration":"[Xe] 6s<sup>2</sup> 4f<sup>4</sup>",
               "elektronegativity":"1,2",
               "atomic.radius":"181",
               "atomic.mass":"144,24",
               "heat":"-",
               "thermalconductivity":"-",
               "periodicgroup":5,
               "video":"PBbl-3_R3mk"
            },
            {
               "id":61,
               "symbol":"Pm",
               "block":"f",
               "roomtemperature":3,
               "density":"7220",
               "meltingpoint.celcius":"1068",
               "meltingpoint":"1341",
               "boilingpoint.celcius":"2730",
               "boilingpoint":"3003",
               "isotopes":"-",
               "elektronconfiguration":"[Xe] 6s<sup>2</sup> 4f<sup>5</sup>",
               "elektronegativity":"1,2",
               "atomic.radius":"183",
               "atomic.mass":"145",
               "heat":"-",
               "thermalconductivity":"-",
               "periodicgroup":5,
               "video":"px52fxITTrw"
            },
            {
               "id":62,
               "symbol":"Sm",
               "block":"f",
               "roomtemperature":3,
               "density":"7530",
               "meltingpoint.celcius":"1072",
               "meltingpoint":"1345",
               "boilingpoint.celcius":"1791",
               "boilingpoint":"2064",
               "isotopes":"144Sm, 147Sm, 148Sm, 149Sm, 150Sm, 152Sm, 154Sm",
               "elektronconfiguration":"[Xe] 6s<sup>2</sup> 4f<sup>6</sup>",
               "elektronegativity":"1,2",
               "atomic.radius":"180",
               "atomic.mass":"150,35",
               "heat":"-",
               "thermalconductivity":"-",
               "periodicgroup":5,
               "video":"LpTkBg8HpvY"
            },
            {
               "id":63,
               "symbol":"Eu",
               "block":"f",
               "roomtemperature":3,
               "density":"5250",
               "meltingpoint.celcius":"826",
               "meltingpoint":"1099",
               "boilingpoint.celcius":"1597",
               "boilingpoint":"1870",
               "isotopes":"151Eu, 153Eu",
               "elektronconfiguration":"[Xe] 6s<sup>2</sup> 4f<sup>7</sup>",
               "elektronegativity":"1,0",
               "atomic.radius":"204",
               "atomic.mass":"151,96",
               "heat":"-",
               "thermalconductivity":"-",
               "periodicgroup":5,
               "video":"88YOmg_FUVo"
            },
            {
               "id":64,
               "symbol":"Gd",
               "block":"f",
               "roomtemperature":3,
               "density":"7870",
               "meltingpoint.celcius":"1312",
               "meltingpoint":"1585",
               "boilingpoint.celcius":"3261",
               "boilingpoint":"3534",
               "isotopes":"154Gd, 155Gd, 156Gd, 157Gd, 158Gd, 160Gd",
               "elektronconfiguration":"[Xe] 6s<sup>2</sup> 4f<sup>8</sup>",
               "elektronegativity":"1,1",
               "atomic.radius":"179",
               "atomic.mass":"157,25",
               "heat":"-",
               "thermalconductivity":"-",
               "periodicgroup":5,
               "video":"uUo7pY38fGY"
            },
            {
               "id":65,
               "symbol":"Tb",
               "block":"f",
               "roomtemperature":3,
               "density":"8270",
               "meltingpoint.celcius":"1356",
               "meltingpoint":"1629",
               "boilingpoint.celcius":"3123",
               "boilingpoint":"3396",
               "isotopes":"159Tb",
               "elektronconfiguration":"[Xe] 4f<sup>9</sup> 6s<sup>2</sup>",
               "elektronegativity":"1,2",
               "atomic.radius":"176",
               "atomic.mass":"158,924",
               "heat":"-",
               "thermalconductivity":"-",
               "periodicgroup":5,
               "video":"On5LjH9TQxY"
            },
            {
               "id":66,
               "symbol":"Dy",
               "block":"f",
               "roomtemperature":3,
               "density":"8530",
               "meltingpoint.celcius":"1408",
               "meltingpoint":"1681",
               "boilingpoint.celcius":"2562",
               "boilingpoint":"2835",
               "isotopes":"160Dy, 161Dy, 162Dy, 163Dy, 164Dy",
               "elektronconfiguration":"[Xe] 6s<sup>2</sup> 4f<sup>10</sup>",
               "elektronegativity":"1,2",
               "atomic.radius":"175",
               "atomic.mass":"162,5",
               "heat":"-",
               "thermalconductivity":"-",
               "periodicgroup":5,
               "video":"hFfR_qOSa-8"
            },
            {
               "id":67,
               "symbol":"Ho",
               "block":"f",
               "roomtemperature":3,
               "density":"8800",
               "meltingpoint.celcius":"1465",
               "meltingpoint":"1738",
               "boilingpoint.celcius":"2695",
               "boilingpoint":"2968",
               "isotopes":"165Ho",
               "elektronconfiguration":"[Xe] 6s<sup>2</sup> 4f<sup>11</sup>",
               "elektronegativity":"1,2",
               "atomic.radius":"174",
               "atomic.mass":"164,93",
               "heat":"-",
               "thermalconductivity":"-",
               "periodicgroup":5,
               "video":"3ERc-vPLMUs"
            },
            {
               "id":68,
               "symbol":"Er",
               "block":"f",
               "roomtemperature":3,
               "density":"9040",
               "meltingpoint.celcius":"1529",
               "meltingpoint":"1802",
               "boilingpoint.celcius":"2863",
               "boilingpoint":"3136",
               "isotopes":"164Er, 166Er, 167Er, 168Er, 170Er",
               "elektronconfiguration":"[Xe] 6s<sup>2</sup> 4f<sup>12</sup>",
               "elektronegativity":"1,2",
               "atomic.radius":"173",
               "atomic.mass":"167,26",
               "heat":"-",
               "thermalconductivity":"-",
               "periodicgroup":5,
               "video":"E-DY_RT4fJ4"
            },
            {
               "id":69,
               "symbol":"Tm",
               "block":"f",
               "roomtemperature":3,
               "density":"9330",
               "meltingpoint.celcius":"1545",
               "meltingpoint":"1818",
               "boilingpoint.celcius":"1947",
               "boilingpoint":"2220",
               "isotopes":"169Tm",
               "elektronconfiguration":"[Xe] 6s<sup>2</sup> 4f<sup>13</sup>",
               "elektronegativity":"1,2",
               "atomic.radius":"172",
               "atomic.mass":"168,934",
               "heat":"-",
               "thermalconductivity":"-",
               "periodicgroup":5,
               "video":"CQFDIZfMPVQ"
            },
            {
               "id":70,
               "symbol":"Yb",
               "block":"f",
               "roomtemperature":3,
               "density":"6970",
               "meltingpoint.celcius":"824",
               "meltingpoint":"1097",
               "boilingpoint.celcius":"1194",
               "boilingpoint":"1467",
               "isotopes":"170Yb, 171Yb, 172Yb, 173Yb, 174Yb, 176Yb",
               "elektronconfiguration":"[Xe] 6s<sup>2</sup> 4f<sup>14</sup>",
               "elektronegativity":"1,1",
               "atomic.radius":"194",
               "atomic.mass":"173,04",
               "heat":"-",
               "thermalconductivity":"-",
               "periodicgroup":5,
               "video":"Rp7-yNvOV4I"
            },
            {
               "id":71,
               "symbol":"Lu",
               "block":"d",
               "roomtemperature":3,
               "density":"9840",
               "meltingpoint.celcius":"1655",
               "meltingpoint":"1928",
               "boilingpoint.celcius":"3395",
               "boilingpoint":"3668",
               "isotopes":"175Lu, 176Lu",
               "elektronconfiguration":"[Xe] 6s<sup>2</sup> 4f<sup>14</sup> 5d<sup>1</sup>",
               "elektronegativity":"1,2",
               "atomic.radius":"172",
               "atomic.mass":"174,97",
               "heat":"-",
               "thermalconductivity":"-",
               "periodicgroup":5,
               "video":"a5T1xXoR8XI"
            },
            {
               "id":72,
               "symbol":"Hf",
               "block":"d",
               "roomtemperature":3,
               "density":"13300",
               "meltingpoint.celcius":"2233",
               "meltingpoint":"2506",
               "boilingpoint.celcius":"4603",
               "boilingpoint":"4876",
               "isotopes":"176Hf, 177Hf, 178Hf, 179Hf, 180Hf",
               "elektronconfiguration":"[Xe] 6s<sup>2</sup> 4f<sup>14</sup> 5d<sup>2</sup>",
               "elektronegativity":"1,2",
               "atomic.radius":"157",
               "atomic.mass":"178,49",
               "heat":"-",
               "thermalconductivity":"-",
               "periodicgroup":9,
               "video":"egw79BA_0PA"
            },
            {
               "id":73,
               "symbol":"Ta",
               "block":"d",
               "roomtemperature":3,
               "density":"16700",
               "meltingpoint.celcius":"2996",
               "meltingpoint":"3269",
               "boilingpoint.celcius":"5458",
               "boilingpoint":"5731",
               "isotopes":"181Ta",
               "elektronconfiguration":"[Xe] 6s<sup>2</sup> 4f<sup>14</sup> 5d<sup>3</sup>",
               "elektronegativity":"1,3",
               "atomic.radius":"143",
               "atomic.mass":"180,948",
               "heat":"140",
               "thermalconductivity":"54",
               "periodicgroup":9,
               "video":"51xFP1Yn3g0"
            },
            {
               "id":74,
               "symbol":"W",
               "block":"d",
               "roomtemperature":3,
               "density":"19300",
               "meltingpoint.celcius":"3422",
               "meltingpoint":"3695",
               "boilingpoint.celcius":"5555",
               "boilingpoint":"5828",
               "isotopes":"182W, 183W, 184W, 186W",
               "elektronconfiguration":"[Xe] 6s<sup>2</sup> 4f<sup>14</sup> 5d<sup>4</sup>",
               "elektronegativity":"1,4",
               "atomic.radius":"137",
               "atomic.mass":"183,85",
               "heat":"135",
               "thermalconductivity":"173",
               "periodicgroup":9,
               "video":"PccntqMOoI"
            },
            {
               "id":75,
               "symbol":"Re",
               "block":"d",
               "roomtemperature":3,
               "density":"21000",
               "meltingpoint.celcius":"3186",
               "meltingpoint":"3459",
               "boilingpoint.celcius":"5596",
               "boilingpoint":"5869",
               "isotopes":"185Re, 187Re",
               "elektronconfiguration":"[Xe] 6s<sup>2</sup> 4f<sup>14</sup> 5d<sup>5</sup>",
               "elektronegativity":"1,5",
               "atomic.radius":"137",
               "atomic.mass":"186,2",
               "heat":"-",
               "thermalconductivity":"-",
               "periodicgroup":9,
               "video":"VRccwkEmOYg"
            },
            {
               "id":76,
               "symbol":"Os",
               "block":"d",
               "roomtemperature":3,
               "density":"22600",
               "meltingpoint.celcius":"3033",
               "meltingpoint":"3306",
               "boilingpoint.celcius":"5012",
               "boilingpoint":"5285",
               "isotopes":"186Os, 187Os, 188Os, 189Os, 190Os, 192Os",
               "elektronconfiguration":"[Xe] 6s<sup>2</sup> 4f<sup>14</sup> 5d<sup>6</sup>",
               "elektronegativity":"1,5",
               "atomic.radius":"134",
               "atomic.mass":"190,2",
               "heat":"-",
               "thermalconductivity":"-",
               "periodicgroup":9,
               "video":"AdX-T2Vv68Y"
            },
            {
               "id":77,
               "symbol":"Ir",
               "block":"d",
               "roomtemperature":3,
               "density":"22600",
               "meltingpoint.celcius":"2446",
               "meltingpoint":"2719",
               "boilingpoint.celcius":"4428",
               "boilingpoint":"4701",
               "isotopes":"191Ir, 193Ir",
               "elektronconfiguration":"[Xe] 6s<sup>2</sup> 4f<sup>14</sup> 5d<sup>7</sup>",
               "elektronegativity":"1,6",
               "atomic.radius":"135",
               "atomic.mass":"192,2",
               "heat":"-",
               "thermalconductivity":"-",
               "periodicgroup":9,
               "video":"cuovE4OQi2g"
            },
            {
               "id":78,
               "symbol":"Pt",
               "block":"d",
               "roomtemperature":3,
               "density":"21500",
               "meltingpoint.celcius":"1769",
               "meltingpoint":"2042",
               "boilingpoint.celcius":"3825",
               "boilingpoint":"4098",
               "isotopes":"192Pt, 194Pt, 195Pt, 196Pt, 198Pt",
               "elektronconfiguration":"[Xe] 6s<sup>2</sup> 4f<sup>14</sup> 5d<sup>8</sup>",
               "elektronegativity":"1,4",
               "atomic.radius":"138",
               "atomic.mass":"195,09",
               "heat":"133",
               "thermalconductivity":"71,6",
               "periodicgroup":9,
               "video":"byzaoji_9kk"
            },
            {
               "id":79,
               "symbol":"Au",
               "block":"d",
               "roomtemperature":3,
               "density":"19300",
               "meltingpoint.celcius":"1064",
               "meltingpoint":"1337",
               "boilingpoint.celcius":"2856",
               "boilingpoint":"3129",
               "isotopes":"197Au",
               "elektronconfiguration":"[Xe] 6s<sup>2</sup> 4f<sup>14</sup> 5d<sup>9</sup>",
               "elektronegativity":"1,4",
               "atomic.radius":"144",
               "atomic.mass":"196,967",
               "heat":"129",
               "thermalconductivity":"318",
               "periodicgroup":9,
               "video":"CTtf5s2HFkA"
            },
            {
               "id":80,
               "symbol":"Hg",
               "block":"d",
               "roomtemperature":2,
               "density":"13546",
               "meltingpoint.celcius":"-39",
               "meltingpoint":"234",
               "boilingpoint.celcius":"357",
               "boilingpoint":"630",
               "isotopes":"198Hg, 199Hg, 200Hg, 201Hg, 202Hg, 204Hg",
               "elektronconfiguration":"[Xe] 6s<sup>2</sup> 4f<sup>14</sup> 5d<sup>10</sup>",
               "elektronegativity":"1,4",
               "atomic.radius":"152",
               "atomic.mass":"200,59",
               "heat":"138",
               "thermalconductivity":"10,4",
               "periodicgroup":9,
               "video":"oL0M_6bfzkU"
            },
            {
               "id":81,
               "symbol":"Tl",
               "block":"p",
               "roomtemperature":3,
               "density":"11900",
               "meltingpoint.celcius":"304",
               "meltingpoint":"577",
               "boilingpoint.celcius":"1473",
               "boilingpoint":"1746",
               "isotopes":"203Tl, 205Tl",
               "elektronconfiguration":"[Xe] 6s<sup>2</sup> 4f<sup>14</sup> 5d<sup>10</sup> 6p<sup>1</sup>",
               "elektronegativity":"1,4",
               "atomic.radius":"171",
               "atomic.mass":"204,37",
               "heat":"-",
               "thermalconductivity":"-",
               "periodicgroup":4,
               "video":"bK6nnyibhdk"
            },
            {
               "id":82,
               "symbol":"Pb",
               "block":"p",
               "roomtemperature":3,
               "density":"11300",
               "meltingpoint.celcius":"328",
               "meltingpoint":"601",
               "boilingpoint.celcius":"1749",
               "boilingpoint":"2022",
               "isotopes":"204Pb, 206Pb, 207Pb, 208Pb",
               "elektronconfiguration":"[Xe] 6s<sup>2</sup> 4f<sup>14</sup> 5d<sup>10</sup> 6p<sup>2</sup>",
               "elektronegativity":"1,6",
               "atomic.radius":"175",
               "atomic.mass":"207,19",
               "heat":"128",
               "thermalconductivity":"35,3",
               "periodicgroup":4,
               "video":"2ERfPN5JLX8"
            },
            {
               "id":83,
               "symbol":"Bi",
               "block":"p",
               "roomtemperature":3,
               "density":"9800",
               "meltingpoint.celcius":"272",
               "meltingpoint":"545",
               "boilingpoint.celcius":"1564",
               "boilingpoint":"1837",
               "isotopes":"209Bi",
               "elektronconfiguration":"[Xe] 6s<sup>2</sup> 4f<sup>14</sup> 5d<sup>10</sup> 6p<sup>3</sup>",
               "elektronegativity":"1,7",
               "atomic.radius":"170",
               "atomic.mass":"208,981",
               "heat":"120",
               "thermalconductivity":"9",
               "periodicgroup":4,
               "video":"vyIo-c7VmIM"
            },
            {
               "id":84,
               "symbol":"Po",
               "block":"p",
               "roomtemperature":3,
               "density":"9400",
               "meltingpoint.celcius":"254",
               "meltingpoint":"527",
               "boilingpoint.celcius":"962",
               "boilingpoint":"1235",
               "isotopes":"-",
               "elektronconfiguration":"[Xe] 6s<sup>2</sup> 4f<sup>14</sup> 5d<sup>10</sup> 6p<sup>4</sup>",
               "elektronegativity":"1,8",
               "atomic.radius":"140",
               "atomic.mass":"209",
               "heat":"-",
               "thermalconductivity":"-",
               "periodicgroup":3,
               "video":"bbr5yWwsI1o"
            },
            {
               "id":85,
               "symbol":"At",
               "block":"p",
               "roomtemperature":3,
               "density":"-",
               "meltingpoint.celcius":"302",
               "meltingpoint":"575",
               "boilingpoint.celcius":"337",
               "boilingpoint":"610",
               "isotopes":"-",
               "elektronconfiguration":"[Xe] 6s<sup>2</sup> 4f<sup>14</sup> 5d<sup>10</sup> 6p<sup>5</sup>",
               "elektronegativity":"2,0",
               "atomic.radius":"140",
               "atomic.mass":"210",
               "heat":"-",
               "thermalconductivity":"-",
               "periodicgroup":8,
               "video":"sSL7EwdlLlE"
            },
            {
               "id":86,
               "symbol":"Rn",
               "block":"p",
               "roomtemperature":3,
               "density":"9,07",
               "meltingpoint.celcius":"-71",
               "meltingpoint":"202",
               "boilingpoint.celcius":"-62",
               "boilingpoint":"211",
               "isotopes":"-",
               "elektronconfiguration":"[Xe] 6s<sup>2</sup> 4f<sup>14</sup> 5d<sup>10</sup> 6p<sup>6</sup>",
               "elektronegativity":"-",
               "atomic.radius":"-",
               "atomic.mass":"222",
               "heat":"-",
               "thermalconductivity":"-",
               "periodicgroup":6,
               "video":"mTuC_LrEfbU"
            },
            {
               "id":87,
               "symbol":"Fr",
               "block":"s",
               "roomtemperature":3,
               "density":"-",
               "meltingpoint.celcius":"27",
               "meltingpoint":"300",
               "boilingpoint.celcius":"677",
               "boilingpoint":"950",
               "isotopes":"-",
               "elektronconfiguration":"[Rn] 7s<sup>1</sup>",
               "elektronegativity":"0,9",
               "atomic.radius":"270",
               "atomic.mass":"223",
               "heat":"-",
               "thermalconductivity":"-",
               "periodicgroup":2,
               "video":"PyFLvSg6ZDw"
            },
            {
               "id":88,
               "symbol":"Ra",
               "block":"s",
               "roomtemperature":3,
               "density":"5500",
               "meltingpoint.celcius":"700",
               "meltingpoint":"973",
               "boilingpoint.celcius":"1140",
               "boilingpoint":"1413",
               "isotopes":"-",
               "elektronconfiguration":"[Rn] 7s<sup>2</sup>",
               "elektronegativity":"1,0",
               "atomic.radius":"220",
               "atomic.mass":"226",
               "heat":"-",
               "thermalconductivity":"-",
               "periodicgroup":7,
               "video":"5_I6vj-lXNM"
            },
            {
               "id":89,
               "symbol":"Ac",
               "block":"d",
               "roomtemperature":3,
               "density":"10100",
               "meltingpoint.celcius":"1051",
               "meltingpoint":"1324",
               "boilingpoint.celcius":"3227",
               "boilingpoint":"3500",
               "isotopes":"-",
               "elektronconfiguration":"[Rn] 7s<sup>2</sup> 5f<sup>1</sup>",
               "elektronegativity":"1,0",
               "atomic.radius":"188",
               "atomic.mass":"227",
               "heat":"-",
               "thermalconductivity":"-",
               "periodicgroup":10,
               "video":"0BlpjWBYW0k"
            },
            {
               "id":90,
               "symbol":"Th",
               "block":"f",
               "roomtemperature":3,
               "density":"11800",
               "meltingpoint.celcius":"1727",
               "meltingpoint":"2000",
               "boilingpoint.celcius":"4527",
               "boilingpoint":"4800",
               "isotopes":"232Th",
               "elektronconfiguration":"[Rn] 7s<sup>2</sup> 5f<sup>2</sup>",
               "elektronegativity":"1,3",
               "atomic.radius":"180",
               "atomic.mass":"232,038",
               "heat":"-",
               "thermalconductivity":"-",
               "periodicgroup":10,
               "video":"KQ64Jm3dmSs"
            },
            {
               "id":91,
               "symbol":"Pa",
               "block":"f",
               "roomtemperature":3,
               "density":"15400",
               "meltingpoint.celcius":"1527",
               "meltingpoint":"1800",
               "boilingpoint.celcius":"4127",
               "boilingpoint":"4400",
               "isotopes":"231Pa",
               "elektronconfiguration":"[Rn] 7s<sup>3</sup> 5f<sup>3</sup>",
               "elektronegativity":"1,5",
               "atomic.radius":"156",
               "atomic.mass":"231",
               "heat":"-",
               "thermalconductivity":"-",
               "periodicgroup":10,
               "video":"3nZB4u34q98"
            },
            {
               "id":92,
               "symbol":"U",
               "block":"f",
               "roomtemperature":3,
               "density":"19100",
               "meltingpoint.celcius":"1127",
               "meltingpoint":"1400",
               "boilingpoint.celcius":"3927",
               "boilingpoint":"4200",
               "isotopes":"235U, 238U",
               "elektronconfiguration":"[Rn] 7s<sup>2</sup> 5f<sup>4</sup>",
               "elektronegativity":"1,7",
               "atomic.radius":"138",
               "atomic.mass":"238,03",
               "heat":"116",
               "thermalconductivity":"21,9",
               "periodicgroup":10,
               "video":"B8vVZTvJNGk"
            },
            {
               "id":93,
               "symbol":"Np",
               "block":"f",
               "roomtemperature":3,
               "density":"20500",
               "meltingpoint.celcius":"637",
               "meltingpoint":"910",
               "boilingpoint.celcius":"3927",
               "boilingpoint":"4200",
               "isotopes":"-",
               "elektronconfiguration":"[Rn] 7s<sup>2</sup> 5f<sup>5</sup>",
               "elektronegativity":"-",
               "atomic.radius":"155",
               "atomic.mass":"237",
               "heat":"-",
               "thermalconductivity":"-",
               "periodicgroup":10,
               "video":"1D75B0_URbE"
            },
            {
               "id":94,
               "symbol":"Pu",
               "block":"f",
               "roomtemperature":3,
               "density":"19900",
               "meltingpoint.celcius":"637",
               "meltingpoint":"910",
               "boilingpoint.celcius":"3327",
               "boilingpoint":"3600",
               "isotopes":"-",
               "elektronconfiguration":"[Rn] 7s<sup>2</sup> 5f<sup>6</sup>",
               "elektronegativity":"-",
               "atomic.radius":"159",
               "atomic.mass":"244",
               "heat":"-",
               "thermalconductivity":"-",
               "periodicgroup":10,
               "video":"89UNPdNtOoE"
            },
            {
               "id":95,
               "symbol":"Am",
               "block":"f",
               "roomtemperature":3,
               "density":"13800",
               "meltingpoint.celcius":"1127",
               "meltingpoint":"1400",
               "boilingpoint.celcius":"2627",
               "boilingpoint":"2900",
               "isotopes":"-",
               "elektronconfiguration":"[Rn] 7s<sup>2</sup> 5f<sup>7</sup>",
               "elektronegativity":"1,0",
               "atomic.radius":"173",
               "atomic.mass":"243",
               "heat":"-",
               "thermalconductivity":"-",
               "periodicgroup":10,
               "video":"CC-L-CITg3k"
            },
            {
               "id":96,
               "symbol":"Cm",
               "block":"f",
               "roomtemperature":3,
               "density":"13500",
               "meltingpoint.celcius":"1327",
               "meltingpoint":"1600",
               "boilingpoint.celcius":"3127",
               "boilingpoint":"3400",
               "isotopes":"-",
               "elektronconfiguration":"[Rn] 7s<sup>2</sup> 5f<sup>8</sup>",
               "elektronegativity":"-",
               "atomic.radius":"-",
               "atomic.mass":"247",
               "heat":"-",
               "thermalconductivity":"-",
               "periodicgroup":10,
               "video":"sZobqPFNcwg"
            },
            {
               "id":97,
               "symbol":"Bk",
               "block":"f",
               "roomtemperature":3,
               "density":"14800",
               "meltingpoint.celcius":"1027",
               "meltingpoint":"1300",
               "boilingpoint.celcius":"2627",
               "boilingpoint":"2900",
               "isotopes":"-",
               "elektronconfiguration":"[Rn] 7s<sup>2</sup> 5f<sup>9</sup>",
               "elektronegativity":"-",
               "atomic.radius":"172",
               "atomic.mass":"247",
               "heat":"-",
               "thermalconductivity":"-",
               "periodicgroup":10,
               "video":"imXT9QwRzks"
            },
            {
               "id":98,
               "symbol":"Cf",
               "block":"f",
               "roomtemperature":0,
               "density":"9300",
               "meltingpoint.celcius":"927",
               "meltingpoint":"1200",
               "boilingpoint.celcius":"1427",
               "boilingpoint":"1700",
               "isotopes":"-",
               "elektronconfiguration":"[Rn] 7s<sup>2</sup> 5f<sup>10</sup>",
               "elektronegativity":"-",
               "atomic.radius":"199",
               "atomic.mass":"251",
               "heat":"-",
               "thermalconductivity":"-",
               "periodicgroup":10,
               "video":"eG6HyPrTccI"
            },
            {
               "id":99,
               "symbol":"Es",
               "block":"f",
               "roomtemperature":0,
               "density":"8800",
               "meltingpoint.celcius":"827",
               "meltingpoint":"1100",
               "boilingpoint.celcius":"1527",
               "boilingpoint":"1800",
               "isotopes":"-",
               "elektronconfiguration":"[Rn] 7s<sup>2</sup> 5f<sup>11</sup>",
               "elektronegativity":"-",
               "atomic.radius":"203",
               "atomic.mass":"252",
               "heat":"-",
               "thermalconductivity":"-",
               "periodicgroup":10,
               "video":"-G_4nJLNXA0"
            },
            {
               "id":100,
               "symbol":"Fm",
               "block":"f",
               "roomtemperature":0,
               "density":"-",
               "meltingpoint.celcius":"-",
               "meltingpoint":"-",
               "boilingpoint.celcius":"-",
               "boilingpoint":"-",
               "isotopes":"-",
               "elektronconfiguration":"[Rn] 7s<sup>2</sup> 5f<sup>12</sup>",
               "elektronegativity":"-",
               "atomic.radius":"-",
               "atomic.mass":"257",
               "heat":"-",
               "thermalconductivity":"-",
               "periodicgroup":10,
               "video":"SQhI52sqanA"
            },
            {
               "id":101,
               "symbol":"Md",
               "block":"f",
               "roomtemperature":0,
               "density":"-",
               "meltingpoint.celcius":"-",
               "meltingpoint":"-",
               "boilingpoint.celcius":"-",
               "boilingpoint":"-",
               "isotopes":"-",
               "elektronconfiguration":"[Rn] 7s<sup>2</sup> 5f<sup>13</sup>",
               "elektronegativity":"-",
               "atomic.radius":"-",
               "atomic.mass":"257",
               "heat":"-",
               "thermalconductivity":"-",
               "periodicgroup":10,
               "video":"0JlshAo8DuE"
            },
            {
               "id":102,
               "symbol":"No",
               "block":"f",
               "roomtemperature":0,
               "density":"-",
               "meltingpoint.celcius":"-",
               "meltingpoint":"-",
               "boilingpoint.celcius":"-",
               "boilingpoint":"-",
               "isotopes":"-",
               "elektronconfiguration":"[Rn] 7s<sup>2</sup> 5f<sup>14</sup>",
               "elektronegativity":"-",
               "atomic.radius":"-",
               "atomic.mass":"257",
               "heat":"-",
               "thermalconductivity":"-",
               "periodicgroup":10,
               "video":"t_ZpauMxapY"
            },
            {
               "id":103,
               "symbol":"Lr",
               "block":"d",
               "roomtemperature":0,
               "density":"-",
               "meltingpoint.celcius":"-",
               "meltingpoint":"-",
               "boilingpoint.celcius":"-",
               "boilingpoint":"-",
               "isotopes":"-",
               "elektronconfiguration":"[Rn] 7s<sup>2</sup> 5f<sup>14</sup> 7d<sup>1</sup>",
               "elektronegativity":"-",
               "atomic.radius":"-",
               "atomic.mass":"257",
               "heat":"-",
               "thermalconductivity":"-",
               "periodicgroup":10,
               "video":"_zBsnnJOkyA"
            },
            {
               "id":104,
               "symbol":"Rf",
               "block":"d",
               "roomtemperature":0,
               "density":"-",
               "meltingpoint.celcius":"-",
               "meltingpoint":"-",
               "boilingpoint.celcius":"-",
               "boilingpoint":"-",
               "isotopes":"-",
               "elektronconfiguration":"[Rn] 7s<sup>2</sup> 5f<sup>14</sup> 6d<sup>2</sup>",
               "elektronegativity":"-",
               "atomic.radius":"-",
               "atomic.mass":"259",
               "heat":"-",
               "thermalconductivity":"-",
               "periodicgroup":9,
               "video":"dOj9ZjKnJcY"
            },
            {
               "id":105,
               "symbol":"Db",
               "block":"d",
               "roomtemperature":0,
               "density":"-",
               "meltingpoint.celcius":"-",
               "meltingpoint":"-",
               "boilingpoint.celcius":"-",
               "boilingpoint":"-",
               "isotopes":"-",
               "elektronconfiguration":"[Rn] 7s<sup>2</sup> 5f<sup>14</sup> 6d<sup>3</sup>",
               "elektronegativity":"-",
               "atomic.radius":"-",
               "atomic.mass":"262",
               "heat":"-",
               "thermalconductivity":"-",
               "periodicgroup":9,
               "video":"eeczRrDoL_M"
            },
            {
               "id":106,
               "symbol":"Sg",
               "block":"d",
               "roomtemperature":0,
               "density":"-",
               "meltingpoint.celcius":"-",
               "meltingpoint":"-",
               "boilingpoint.celcius":"-",
               "boilingpoint":"-",
               "isotopes":"-",
               "elektronconfiguration":"[Rn] 7s<sup>2</sup> 5f<sup>14</sup> 6d<sup>4</sup>",
               "elektronegativity":"-",
               "atomic.radius":"-",
               "atomic.mass":"263",
               "heat":"-",
               "thermalconductivity":"-",
               "periodicgroup":9,
               "video":"UWq0djr790E"
            },
            {
               "id":107,
               "symbol":"Bh",
               "block":"d",
               "roomtemperature":0,
               "density":"-",
               "meltingpoint.celcius":"-",
               "meltingpoint":"-",
               "boilingpoint.celcius":"-",
               "boilingpoint":"-",
               "isotopes":"-",
               "elektronconfiguration":"[Rn] 7s<sup>2</sup> 5f<sup>14</sup> 6d<sup>5</sup>",
               "elektronegativity":"1,3",
               "atomic.radius":"-",
               "atomic.mass":"264",
               "heat":"-",
               "thermalconductivity":"-",
               "periodicgroup":9,
               "video":"okJnQIjELY4"
            },
            {
               "id":108,
               "symbol":"Hs",
               "block":"d",
               "roomtemperature":0,
               "density":"-",
               "meltingpoint.celcius":"-",
               "meltingpoint":"-",
               "boilingpoint.celcius":"-",
               "boilingpoint":"-",
               "isotopes":"-",
               "elektronconfiguration":"[Rn] 7s<sup>2</sup> 5f<sup>14</sup> 6d<sup>6</sup>",
               "elektronegativity":"-",
               "atomic.radius":"-",
               "atomic.mass":"267",
               "heat":"-",
               "thermalconductivity":"-",
               "periodicgroup":9,
               "video":"u4GEVxbLego"
            },
            {
               "id":109,
               "symbol":"Mt",
               "block":"d",
               "roomtemperature":0,
               "density":"-",
               "meltingpoint.celcius":"-",
               "meltingpoint":"-",
               "boilingpoint.celcius":"-",
               "boilingpoint":"-",
               "isotopes":"-",
               "elektronconfiguration":"[Rn] 7s<sup>2</sup> 5f<sup>14</sup> 6d<sup>7</sup>",
               "elektronegativity":"-",
               "atomic.radius":"-",
               "atomic.mass":"268",
               "heat":"-",
               "thermalconductivity":"-",
               "periodicgroup":9,
               "video":"N8VR7Qscq4k"
            },
            {
               "id":110,
               "symbol":"Ds",
               "block":"d",
               "roomtemperature":0,
               "density":"-",
               "meltingpoint.celcius":"-",
               "meltingpoint":"-",
               "boilingpoint.celcius":"-",
               "boilingpoint":"-",
               "isotopes":"-",
               "elektronconfiguration":"[Rn] 7s<sup>2</sup> 5f<sup>14</sup> 6d<sup>8</sup>",
               "elektronegativity":"-",
               "atomic.radius":"-",
               "atomic.mass":"271",
               "heat":"-",
               "thermalconductivity":"-",
               "periodicgroup":9,
               "video":"lhvMqva3-7M"
            },
            {
               "id":111,
               "symbol":"Rg",
               "block":"d",
               "roomtemperature":0,
               "density":"-",
               "meltingpoint.celcius":"-",
               "meltingpoint":"-",
               "boilingpoint.celcius":"-",
               "boilingpoint":"-",
               "isotopes":"-",
               "elektronconfiguration":"[Rn] 7s<sup>2</sup> 5f<sup>14</sup> 6d<sup>9</sup>",
               "elektronegativity":"-",
               "atomic.radius":"-",
               "atomic.mass":"272",
               "heat":"-",
               "thermalconductivity":"-",
               "periodicgroup":9,
               "video":"MTq1hzhCF0g"
            },
            {
               "id":112,
               "symbol":"Cn",
               "block":"d",
               "roomtemperature":0,
               "density":"-",
               "meltingpoint.celcius":"-",
               "meltingpoint":"-",
               "boilingpoint.celcius":"-",
               "boilingpoint":"-",
               "isotopes":"-",
               "elektronconfiguration":"[Rn] 7s<sup>2</sup> 5f<sup>14</sup> 6d<sup>10</sup>",
               "elektronegativity":"-",
               "atomic.radius":"-",
               "atomic.mass":"285",
               "heat":"-",
               "thermalconductivity":"-",
               "periodicgroup":9,
               "video":"QHcbQfcwegY"
            },
            {
               "id":113,
               "symbol":"Nh",
               "block":"p",
               "roomtemperature":0,
               "density":"-",
               "meltingpoint.celcius":"-",
               "meltingpoint":"-",
               "boilingpoint.celcius":"-",
               "boilingpoint":"-",
               "isotopes":"-",
               "elektronconfiguration":"[Rn] 7s<sup>2</sup> 5f<sup>14</sup> 6d<sup>10</sup> 7p<sup>1</sup>",
               "elektronegativity":"-",
               "atomic.radius":"-",
               "atomic.mass":"284",
               "heat":"-",
               "thermalconductivity":"-",
               "periodicgroup":4,
               "video":"VqKF1RSnuvo"
            },
            {
               "id":114,
               "symbol":"Fl",
               "block":"p",
               "roomtemperature":0,
               "density":"-",
               "meltingpoint.celcius":"-",
               "meltingpoint":"-",
               "boilingpoint.celcius":"-",
               "boilingpoint":"-",
               "isotopes":"-",
               "elektronconfiguration":"[Rn] 7s<sup>2</sup> 5f<sup>14</sup> 6d<sup>10</sup> 7p<sup>2</sup>",
               "elektronegativity":"-",
               "atomic.radius":"-",
               "atomic.mass":"289",
               "heat":"-",
               "thermalconductivity":"-",
               "periodicgroup":4,
               "video":"5L-NNFPiRog"
            },
            {
               "id":115,
               "symbol":"Mc",
               "block":"p",
               "roomtemperature":0,
               "density":"-",
               "meltingpoint.celcius":"-",
               "meltingpoint":"-",
               "boilingpoint.celcius":"-",
               "boilingpoint":"-",
               "isotopes":"-",
               "elektronconfiguration":"[Rn] 7s<sup>2</sup> 5f<sup>14</sup> 6d<sup>10</sup> 7p<sup>3</sup>",
               "elektronegativity":"-",
               "atomic.radius":"-",
               "atomic.mass":"271",
               "heat":"-",
               "thermalconductivity":"-",
               "periodicgroup":4,
               "video":"BJYDrugEtxY"
            },
            {
               "id":116,
               "symbol":"Lv",
               "block":"p",
               "roomtemperature":0,
               "density":"-",
               "meltingpoint.celcius":"-",
               "meltingpoint":"-",
               "boilingpoint.celcius":"-",
               "boilingpoint":"-",
               "isotopes":"-",
               "elektronconfiguration":"[Rn] 7s<sup>2</sup> 5f<sup>14</sup> 6d<sup>10</sup> 7p<sup>4</sup>",
               "elektronegativity":"-",
               "atomic.radius":"-",
               "atomic.mass":"292",
               "heat":"-",
               "thermalconductivity":"-",
               "periodicgroup":4,
               "video":"WdbF4L_ruyM"
            },
            {
               "id":117,
               "symbol":"Ts",
               "block":"p",
               "roomtemperature":0,
               "density":"-",
               "meltingpoint.celcius":"-",
               "meltingpoint":"-",
               "boilingpoint.celcius":"-",
               "boilingpoint":"-",
               "isotopes":"-",
               "elektronconfiguration":"[Rn] 7s<sup>2</sup> 5f<sup>14</sup> 6d<sup>10</sup> 7p<sup>5</sup>",
               "elektronegativity":"-",
               "atomic.radius":"-",
               "atomic.mass":"292",
               "heat":"-",
               "thermalconductivity":"-",
               "periodicgroup":8,
               "video":"5kVyOd-F5q0"
            },
            {
               "id":118,
               "symbol":"Og",
               "block":"p",
               "roomtemperature":0,
               "density":"-",
               "meltingpoint.celcius":"-",
               "meltingpoint":"-",
               "boilingpoint.celcius":"-",
               "boilingpoint":"-",
               "isotopes":"-",
               "elektronconfiguration":"[Rn] 7s<sup>2</sup> 5f<sup>14</sup> 6d<sup>10</sup> 7p<sup>6</sup>",
               "elektronegativity":"-",
               "atomic.radius":"-",
               "atomic.mass":"294",
               "heat":"-",
               "thermalconductivity":"-",
               "periodicgroup":6,
               "video":"Stxor9L00BU"
            }
         ]
      },
      "translation":{
         "symbol.decimal":",",
         "symbol.thousand":".",
         "categories":"Categories",
         "categories.selectall":"Select all",
         "keys.show":"Show key",
         "info":"Information",
         "video":"Video",
         "info.symbol":"Symbol",
         "info.group":"Group",
         "info.period":"Period",
         "info.block":"Block",
         "info.roomtemperature":"At room temperature",
         "info.density":"Density",
         "info.meltingpoint":"Melting point",
         "info.boilingpoint":"Boiling point",
         "info.protonselectrons":"Protons/electrons",
         "info.isotopes":"Isotopes",
         "info.electronconfiguration":"Electron configuration",
         "info.electronegativity":"Electronegativity",
         "info.atomic.radius":"Atomic radius",
         "info.atomic.mass":"Relative atomic mass",
         "info.heat":"Specific heat",
         "info.conductivity":"Thermal conductivity",
         "state.0":"unknown",
         "state.1":"gas",
         "state.2":"liquid",
         "state.3":"solid",
         "group.1":"Non-metals",
         "group.2":"Alkali metals",
         "group.3":"Metalloids",
         "group.4":"Main-group metals",
         "group.5":"Lanthanides",
         "group.6":"Noble gases",
         "group.7":"Alkaline earth metals",
         "group.8":"Halogens",
         "group.9":"Transition metals",
         "group.10":"Actinides",
         "element.1":"Hydrogen",
         "element.2":"Helium",
         "element.3":"Lithium",
         "element.4":"Beryllium",
         "element.5":"Boron",
         "element.6":"Carbon",
         "element.7":"Nitrogen",
         "element.8":"Oxygen",
         "element.9":"Fluor",
         "element.10":"Neon",
         "element.11":"Sodium",
         "element.12":"Magnesium",
         "element.13":"Aluminum",
         "element.14":"Silicon",
         "element.15":"Phosphorus",
         "element.16":"Sulfur",
         "element.17":"Chlorine",
         "element.18":"Argon",
         "element.19":"Potassium",
         "element.20":"Calcium",
         "element.21":"Scandium",
         "element.22":"Titanium",
         "element.23":"Vanadium",
         "element.24":"Chrome",
         "element.25":"Manganese",
         "element.26":"Iron",
         "element.27":"Cobalt",
         "element.28":"Nickel",
         "element.29":"Copper",
         "element.30":"Zinc",
         "element.31":"Gallium",
         "element.32":"Germanium",
         "element.33":"Arsenic",
         "element.34":"Selenium",
         "element.35":"Bromine",
         "element.36":"Krypton",
         "element.37":"Rubidium",
         "element.38":"Strontium",
         "element.39":"Ytrrium",
         "element.40":"Zircon",
         "element.41":"Niobium",
         "element.42":"Molybdenum",
         "element.43":"Technetium",
         "element.44":"Ruthenium",
         "element.45":"Rhodium",
         "element.46":"Palladium",
         "element.47":"Silver",
         "element.48":"Cadmium",
         "element.49":"Indium",
         "element.50":"Tin",
         "element.51":"Antimony",
         "element.52":"Tellurium",
         "element.53":"Iodine",
         "element.54":"Xenon",
         "element.55":"Cesium",
         "element.56":"Barium",
         "element.57":"Lanthanum",
         "element.58":"Cerium",
         "element.59":"Praseodymium",
         "element.60":"Neodymium",
         "element.61":"Promethium",
         "element.62":"Samarium",
         "element.63":"Europium",
         "element.64":"Gadolinium",
         "element.65":"Terbium",
         "element.66":"Dysprosium",
         "element.67":"Holmium",
         "element.68":"Erbium",
         "element.69":"Thulium",
         "element.70":"Ytterbium",
         "element.71":"Lutetium",
         "element.72":"Hafnium",
         "element.73":"Tantalum",
         "element.74":"tungsten",
         "element.75":"Rhenium",
         "element.76":"Osmium",
         "element.77":"Iridium",
         "element.78":"Platinum",
         "element.79":"Gold",
         "element.80":"Mercury",
         "element.81":"Thallium",
         "element.82":"Lead",
         "element.83":"Bismuth",
         "element.84":"Polonium",
         "element.85":"Astatine",
         "element.86":"Radon",
         "element.87":"Francium",
         "element.88":"Radium",
         "element.89":"Actinium",
         "element.90":"Thorium",
         "element.91":"Protactinium",
         "element.92":"Uranium",
         "element.93":"Neptunium",
         "element.94":"Plutonium",
         "element.95":"Americium",
         "element.96":"Curium",
         "element.97":"Berkelium",
         "element.98":"Californium",
         "element.99":"Einsteinium",
         "element.100":"Ferium",
         "element.101":"Mendelevium",
         "element.102":"Nobelium",
         "element.103":"Lawrencium",
         "element.104":"Rutherfordium",
         "element.105":"Dubnium",
         "element.106":"Seaborgium",
         "element.107":"Bohrium",
         "element.108":"Hassium",
         "element.109":"Meitnerium",
         "element.110":"Darmstadtium",
         "element.111":"Roentgenium",
         "element.112":"Copernicium",
         "element.113":"Nihonium",
         "element.114":"Flerovium",
         "element.115":"Moscovium",
         "element.116":"Livermorium",
         "element.117":"Tennessine",
         "element.118":"Oganesson"
      }
   }
}